<svg width="100" height="100" viewBox="0 0 100 100" fill="none" xmlns="http://www.w3.org/2000/svg">
<circle cx="50" cy="50" r="50" fill="#B90000"/>
<path d="M55.2318 19L54.2568 62.3101H44.7432L43.7977 19H55.2318ZM49.5 81C47.7076 81 46.1712 80.361 44.8909 79.0831C43.6303 77.8051 43 76.2477 43 74.4106C43 72.6135 43.6303 71.076 44.8909 69.7981C46.1712 68.5201 47.7076 67.8812 49.5 67.8812C51.253 67.8812 52.7697 68.5201 54.05 69.7981C55.35 71.076 56 72.6135 56 74.4106C56 75.6287 55.6947 76.7369 55.0841 77.7353C54.4932 78.7337 53.7053 79.5324 52.7205 80.1314C51.7553 80.7105 50.6818 81 49.5 81Z" fill="white"/>
</svg>
