<svg width="44" height="44" viewBox="0 0 44 44" fill="none" xmlns="http://www.w3.org/2000/svg">
<path d="M28.7317 2C29.6859 2.25266 30.5695 2.72092 31.3142 3.36875C32.059 4.01657 32.6452 4.82667 33.0276 5.73667C34.4032 8.06541 35.0013 10.7718 34.7352 13.4633C34.4691 16.1548 33.3526 18.6917 31.5476 20.706C30.2267 22.0797 29.2856 23.7732 28.8165 25.6204C28.3898 27.3989 28.4879 29.2629 29.0989 30.9867C29.6113 32.2797 29.8396 33.6677 29.7683 35.0567C29.5978 36.8247 28.8406 38.4848 27.6173 39.7726C26.394 41.0604 24.7749 41.9018 23.018 42.1629C22.9046 42.1831 22.7924 42.2095 22.6819 42.2419H21.1087C20.5636 42.1177 20.0072 42.0301 19.4762 41.8578C18.4639 41.5373 17.5272 41.0147 16.7227 40.3216C15.9182 39.6285 15.2627 38.7795 14.7959 37.8258C14.3291 36.872 14.0606 35.8335 14.0068 34.7731C13.953 33.7126 14.1148 32.6522 14.4827 31.6561C15.1169 30.0148 15.3475 28.245 15.1549 26.496C14.923 24.5574 14.0848 22.7415 12.7598 21.3075C11.1766 19.6881 10.0392 17.6867 9.45807 15.4978C8.86428 13.3529 8.84749 11.0893 9.40941 8.93581C9.97133 6.78237 11.092 4.81553 12.6581 3.23426C13.3083 2.58169 14.1471 2.14994 15.056 2L28.7317 2ZM15.539 23.4174C15.6011 23.5897 15.6407 23.6998 15.6802 23.8015C16.0854 24.8516 16.3283 25.9573 16.4004 27.0806C16.4875 28.7727 16.2111 30.4639 15.5898 32.0402C15.1737 33.1091 15.0584 34.2715 15.2565 35.4013C15.3936 36.2735 15.7017 37.11 16.163 37.8627C16.6243 38.6155 17.2298 39.2697 17.9447 39.7878C18.6596 40.3059 19.4699 40.6776 20.3288 40.8816C21.1878 41.0856 22.0787 41.1179 22.9502 40.9766C24.4098 40.7395 25.7519 40.0315 26.7717 38.9607C27.7916 37.8898 28.4333 36.5149 28.599 35.0454C28.6836 33.8808 28.5061 32.712 28.0793 31.6251C27.3786 29.7917 27.2035 27.7992 27.5737 25.8718C27.7291 25.0583 27.9946 24.2675 28.212 23.4682C28.2058 23.4654 28.1991 23.4639 28.1923 23.4639C28.1854 23.4639 28.1787 23.4654 28.1725 23.4682C28.0793 23.5134 27.9861 23.5642 27.8901 23.6123C25.3679 24.9442 22.472 25.3917 19.6654 24.8832C19.2051 24.8041 18.9678 24.5528 19.0186 24.2054C19.0695 23.858 19.3915 23.6405 19.866 23.7224C21.2587 23.9903 22.6905 23.9816 24.08 23.697C26.167 23.3423 28.1125 22.4084 29.6945 21.0017C31.2765 19.5949 32.4314 17.772 33.0276 15.7407C33.7142 13.7426 33.825 11.5917 33.3476 9.53359C32.8702 7.47549 31.8236 5.59311 30.3275 4.10135C30.0591 3.80293 29.7293 3.56612 29.3607 3.40719C28.9921 3.24825 28.5935 3.17095 28.1923 3.1806C23.9877 3.1806 19.7841 3.1806 15.5814 3.1806C15.1866 3.17222 14.7946 3.24885 14.432 3.40528C14.0695 3.56171 13.7448 3.79428 13.48 4.08723C12.039 5.53546 11.0159 7.346 10.5187 9.32761C10.0216 11.3092 10.0689 13.3883 10.6556 15.3453C11.0922 16.9984 11.8955 18.5319 13.006 19.832C14.1164 21.1321 15.5054 22.1655 17.0698 22.8553C17.5019 23.0615 17.6488 23.3496 17.5019 23.6857C17.3551 24.0218 17.0133 24.1291 16.5699 23.9201C16.2423 23.7676 15.9231 23.6038 15.539 23.4174Z" fill="#0066BA"/>
<path d="M15.5339 23.4174C15.918 23.6066 16.2372 23.7704 16.5648 23.9201C17.0083 24.1263 17.3415 24.0387 17.4969 23.6857C17.6522 23.3326 17.4969 23.0615 17.0647 22.8553C15.3628 22.0785 13.8716 20.9053 12.716 19.434C11.5604 17.9627 10.7739 16.236 10.4225 14.3984C10.071 12.5609 10.1647 10.6658 10.6958 8.87191C11.2268 7.07799 12.1798 5.43733 13.4749 4.08722C13.7397 3.79428 14.0644 3.5617 14.427 3.40527C14.7895 3.24884 15.1815 3.17222 15.5763 3.18059C19.7809 3.18059 23.9845 3.18059 28.1872 3.18059C28.5885 3.17095 28.9871 3.24825 29.3556 3.40718C29.7242 3.56612 30.054 3.80292 30.3224 4.10134C31.8171 5.59401 32.8621 7.47681 33.338 9.53487C33.8139 11.5929 33.7017 13.7433 33.0141 15.7407C32.4164 17.7734 31.2591 19.597 29.6745 21.0034C28.0898 22.4097 26.1416 23.3422 24.0523 23.6942C22.6629 23.9788 21.231 23.9874 19.8383 23.7196C19.3723 23.6348 19.0588 23.8213 18.991 24.2025C18.9232 24.5838 19.1774 24.8013 19.6378 24.8804C22.4443 25.3886 25.3402 24.9411 27.8624 23.6094C27.9556 23.5614 28.046 23.5106 28.1448 23.4654C28.1511 23.4626 28.1578 23.4611 28.1646 23.4611C28.1714 23.4611 28.1782 23.4626 28.1844 23.4654C27.9697 24.2647 27.7042 25.0583 27.5461 25.8689C27.1758 27.7964 27.3509 29.7889 28.0516 31.6222C28.4784 32.7091 28.656 33.8779 28.5713 35.0426C28.4056 36.512 27.7639 37.887 26.7441 38.9578C25.7242 40.0287 24.3822 40.7366 22.9225 40.9738C22.0506 41.115 21.1594 41.0825 20.3001 40.8782C19.4407 40.6738 18.6303 40.3016 17.9153 39.783C17.2003 39.2643 16.5949 38.6094 16.1339 37.856C15.6729 37.1026 15.3653 36.2655 15.2289 35.3928C15.0308 34.263 15.146 33.1006 15.5622 32.0318C16.1844 30.4556 16.4618 28.7645 16.3756 27.0721C16.3037 25.9479 16.0608 24.8412 15.6554 23.7902C15.6158 23.6857 15.5763 23.5784 15.5142 23.4061M19.7507 4.7453C18.3753 4.7453 16.9998 4.7453 15.6243 4.7453C15.4275 4.73659 15.2311 4.77072 15.0487 4.84533C14.8663 4.91994 14.7023 5.03325 14.568 5.17743C13.4972 6.25681 12.6923 7.57051 12.2168 9.01463C11.7413 10.4588 11.6083 11.9937 11.8283 13.4981C12.006 14.9129 12.4823 16.2737 13.2256 17.4905C13.969 18.7073 14.9624 19.7522 16.1401 20.556C17.3178 21.3598 18.6529 21.9042 20.0568 22.1531C21.4608 22.4019 22.9017 22.3496 24.2839 21.9995C26.0267 21.6181 27.6295 20.7606 28.914 19.5225C30.1985 18.2843 31.1143 16.7141 31.5595 14.9866C32.0908 13.2934 32.1479 11.487 31.7247 9.76358C31.3014 8.04021 30.414 6.46578 29.1588 5.21133C28.9069 4.97038 28.5859 4.81434 28.2409 4.76507C27.7585 4.71503 27.2725 4.70936 26.7891 4.74813C26.6341 4.74813 26.4854 4.80973 26.3757 4.91937C26.2661 5.02901 26.2045 5.17772 26.2045 5.33278C26.2045 5.48784 26.2661 5.63654 26.3757 5.74619C26.4854 5.85583 26.6341 5.91743 26.7891 5.91743C27.1563 5.91743 27.5263 5.89483 27.8878 5.93437C28.0982 5.95098 28.2971 6.03747 28.4527 6.1801C29.3494 7.13335 30.0185 8.27732 30.4098 9.52616C30.8012 10.775 30.9046 12.0963 30.7122 13.3908C30.5595 14.5707 30.1712 15.7078 29.5704 16.7348C28.9696 17.7617 28.1686 18.6574 27.2149 19.3687C26.2612 20.08 25.1742 20.5925 24.0187 20.8755C22.8631 21.1586 21.6624 21.2066 20.4879 21.0166C18.8882 20.8143 17.3789 20.162 16.1354 19.1355C14.8919 18.109 13.9654 16.7505 13.4636 15.2182C12.8807 13.7171 12.7305 12.0826 13.0301 10.5004C13.3297 8.9182 14.067 7.45175 15.1583 6.26765C15.2496 6.15202 15.3679 6.06062 15.5029 6.00151C15.6378 5.94241 15.7853 5.91741 15.9322 5.92873C18.4995 5.92873 21.0669 5.92873 23.6343 5.92873C23.7388 5.92873 23.8433 5.92873 23.9478 5.92873C24.0298 5.93677 24.1125 5.92757 24.1908 5.90171C24.269 5.87585 24.3409 5.8339 24.402 5.77857C24.463 5.72324 24.5118 5.65574 24.5451 5.58042C24.5785 5.5051 24.5958 5.42363 24.5958 5.34125C24.5958 5.25887 24.5785 5.1774 24.5451 5.10208C24.5118 5.02676 24.463 4.95927 24.402 4.90393C24.3409 4.8486 24.269 4.80665 24.1908 4.78079C24.1125 4.75493 24.0298 4.74573 23.9478 4.75378C22.5356 4.75378 21.146 4.75378 19.7451 4.75378M21.9114 39.2057C22.448 39.0589 22.996 38.9374 23.5185 38.7538C23.5988 38.7327 23.6734 38.6942 23.7371 38.641C23.8008 38.5878 23.852 38.5213 23.8871 38.446C23.9221 38.3708 23.9402 38.2888 23.9399 38.2058C23.9397 38.1228 23.9212 38.0408 23.8857 37.9658C23.8522 37.8915 23.804 37.8249 23.7438 37.77C23.6836 37.7151 23.6129 37.6732 23.5358 37.6467C23.4588 37.6202 23.3772 37.6098 23.296 37.6161C23.2148 37.6224 23.1358 37.6453 23.0638 37.6834C22.979 37.7144 22.8971 37.7568 22.8096 37.785C22.3597 37.9565 21.8711 38 21.398 37.9108C20.9249 37.8216 20.4857 37.603 20.1292 37.2795C19.7505 36.97 19.4692 36.5578 19.3189 36.0924C19.1686 35.627 19.1558 35.1281 19.2819 34.6556C19.3561 34.3107 19.4975 33.9837 19.698 33.6934C19.8985 33.4031 20.1543 33.1552 20.4507 32.9637C20.747 32.7723 21.0782 32.6411 21.4253 32.5776C21.7723 32.5141 22.1285 32.5196 22.4735 32.5938C22.8184 32.668 23.1454 32.8094 23.4357 33.0099C23.7259 33.2105 23.9739 33.4662 24.1654 33.7626C24.3568 34.0589 24.488 34.3901 24.5515 34.7372C24.615 35.0843 24.6094 35.4404 24.5353 35.7854C24.4449 36.2684 24.6002 36.5734 24.9702 36.6468C25.3402 36.7203 25.5888 36.483 25.6904 36C25.7924 35.4766 25.7849 34.9377 25.6685 34.4173C25.552 33.8969 25.329 33.4062 25.0137 32.9761C24.6983 32.5461 24.2973 32.186 23.8359 31.9185C23.3745 31.6511 22.8628 31.482 22.3329 31.4219C21.803 31.3619 21.2664 31.4122 20.7569 31.5697C20.2474 31.7272 19.776 31.9885 19.3724 32.3371C18.9688 32.6857 18.6418 33.114 18.4118 33.5952C18.1819 34.0764 18.054 34.5999 18.0363 35.1329C18.0128 36.1861 18.4072 37.2058 19.1334 37.969C19.8595 38.7322 20.8583 39.1769 21.9114 39.2057M16.6128 17.1755C16.6106 17.6622 16.7527 18.1387 17.0211 18.5447C17.2895 18.9508 17.6722 19.2682 18.1209 19.4569C18.5695 19.6456 19.0641 19.6972 19.542 19.605C20.0199 19.5128 20.4599 19.2811 20.8062 18.9391C21.1525 18.5971 21.3898 18.1601 21.4879 17.6834C21.5861 17.2067 21.5408 16.7115 21.3578 16.2605C21.1747 15.8095 20.8622 15.4228 20.4595 15.1493C20.0569 14.8758 19.5822 14.7278 19.0955 14.7239C18.4413 14.7201 17.8123 14.9762 17.3468 15.4359C16.8813 15.8956 16.6173 16.5213 16.6128 17.1755ZM27.1733 17.1981C27.1733 16.5449 26.9138 15.9184 26.4519 15.4565C25.99 14.9947 25.3636 14.7352 24.7104 14.7352C24.0572 14.7352 23.4307 14.9947 22.9689 15.4565C22.507 15.9184 22.2475 16.5449 22.2475 17.1981C22.2475 17.8512 22.507 18.4777 22.9689 18.9396C23.4307 19.4014 24.0572 19.6609 24.7104 19.6609C25.3636 19.6609 25.99 19.4014 26.4519 18.9396C26.9138 18.4777 27.1733 17.8512 27.1733 17.1981M21.8775 9.67104C21.3915 9.67439 20.9173 9.82166 20.5149 10.0942C20.1124 10.3668 19.7997 10.7525 19.6163 11.2027C19.4329 11.6528 19.3869 12.1472 19.4842 12.6234C19.5815 13.0996 19.8177 13.5364 20.1629 13.8785C20.5082 14.2206 20.9471 14.4528 21.4242 14.5457C21.9013 14.6386 22.3952 14.5881 22.8437 14.4006C23.2921 14.213 23.6749 13.8968 23.9438 13.4919C24.2127 13.087 24.3556 12.6115 24.3545 12.1254C24.3557 11.8009 24.2922 11.4794 24.1679 11.1796C24.0435 10.8798 23.8607 10.6078 23.6302 10.3793C23.3996 10.1509 23.1259 9.97063 22.825 9.84902C22.5241 9.72742 22.202 9.66692 21.8775 9.67104M27.5263 14.5911C28.012 14.5867 28.4855 14.4385 28.8871 14.1654C29.2887 13.8923 29.6005 13.5064 29.7832 13.0563C29.9658 12.6062 30.0112 12.1122 29.9135 11.6364C29.8158 11.1606 29.5795 10.7244 29.2342 10.3828C28.889 10.0411 28.4504 9.80924 27.9737 9.71645C27.4969 9.62367 27.0033 9.67409 26.5552 9.86136C26.107 10.0486 25.7243 10.3644 25.4554 10.7688C25.1864 11.1732 25.0431 11.6482 25.0437 12.1339C25.0474 12.7889 25.311 13.4156 25.7765 13.8763C26.242 14.337 26.8713 14.5941 27.5263 14.5911ZM16.2287 14.5911C16.716 14.5995 17.1948 14.4629 17.6044 14.1988C18.014 13.9346 18.3358 13.5547 18.5292 13.1073C18.7225 12.66 18.7786 12.1652 18.6904 11.6859C18.6021 11.2066 18.3734 10.7643 18.0334 10.4151C17.6934 10.066 17.2573 9.82569 16.7805 9.72475C16.3037 9.62381 15.8076 9.66677 15.3553 9.84818C14.9029 10.0296 14.5147 10.3413 14.2397 10.7437C13.9648 11.1461 13.8156 11.6211 13.811 12.1085C13.8057 12.7574 14.0567 13.3821 14.5094 13.847C14.9621 14.3118 15.58 14.5793 16.2287 14.5911M21.8973 26.3293C21.3686 26.327 20.8603 26.5333 20.4827 26.9035C20.1052 27.2736 19.8888 27.7777 19.8807 28.3064C19.8807 28.8401 20.0927 29.352 20.4701 29.7294C20.8475 30.1067 21.3593 30.3188 21.893 30.3188C22.4268 30.3188 22.9386 30.1067 23.316 29.7294C23.6934 29.352 23.9054 28.8401 23.9054 28.3064C23.898 27.779 23.6831 27.2757 23.3072 26.9056C22.9313 26.5356 22.4248 26.3285 21.8973 26.3293M19.5417 6.45124C19.3187 6.44863 19.0974 6.49007 18.8904 6.57318C18.6834 6.65629 18.4949 6.77944 18.3356 6.93557C18.1764 7.09169 18.0495 7.27772 17.9623 7.48299C17.875 7.68826 17.8292 7.90873 17.8273 8.13175C17.8257 8.35429 17.8678 8.57499 17.9515 8.78123C18.0351 8.98747 18.1585 9.17522 18.3147 9.33376C18.4709 9.4923 18.6568 9.61853 18.8617 9.70523C19.0667 9.79194 19.2867 9.83743 19.5093 9.8391C19.7318 9.84076 19.9525 9.79858 20.1587 9.71496C20.365 9.63134 20.5527 9.50792 20.7113 9.35174C20.8698 9.19555 20.996 9.00967 21.0827 8.80471C21.1695 8.59975 21.2149 8.37971 21.2166 8.15717C21.2166 7.70772 21.0381 7.27669 20.7203 6.95888C20.4025 6.64108 19.9714 6.46253 19.522 6.46253M24.2444 6.46253C23.7949 6.46253 23.3639 6.64108 23.0461 6.95888C22.7283 7.27669 22.5497 7.70772 22.5497 8.15717C22.5497 8.49234 22.6491 8.81998 22.8353 9.09866C23.0215 9.37734 23.2862 9.59455 23.5958 9.72281C23.9055 9.85107 24.2462 9.88463 24.575 9.81924C24.9037 9.75386 25.2056 9.59246 25.4426 9.35546C25.6796 9.11846 25.841 8.8165 25.9064 8.48778C25.9718 8.15905 25.9383 7.81831 25.81 7.50866C25.6817 7.19901 25.4645 6.93434 25.1858 6.74813C24.9072 6.56192 24.5795 6.46253 24.2444 6.46253" fill="#E2EEF7"/>
<path d="M19.784 4.75944C21.1962 4.75944 22.5858 4.75944 23.9867 4.75944C24.0687 4.75139 24.1514 4.7606 24.2297 4.78646C24.3079 4.81232 24.3798 4.85426 24.4409 4.90959C24.5019 4.96493 24.5507 5.03242 24.584 5.10774C24.6174 5.18306 24.6347 5.26453 24.6347 5.34691C24.6347 5.4293 24.6174 5.51077 24.584 5.58609C24.5507 5.6614 24.5019 5.7289 24.4409 5.78423C24.3798 5.83957 24.3079 5.88152 24.2297 5.90738C24.1514 5.93324 24.0687 5.94244 23.9867 5.93439C23.8822 5.93439 23.7777 5.93439 23.6732 5.93439C21.1058 5.93439 18.5384 5.93439 15.9711 5.93439C15.8242 5.92307 15.6767 5.94807 15.5418 6.00718C15.4068 6.06628 15.2885 6.15768 15.1972 6.27332C14.1059 7.45742 13.3685 8.92387 13.069 10.5061C12.7694 12.0882 12.9196 13.7227 13.5025 15.2238C14.004 16.7564 14.9304 18.115 16.1739 19.1415C17.4175 20.1681 18.927 20.8203 20.5268 21.0223C21.7013 21.2123 22.902 21.1643 24.0576 20.8812C25.2131 20.5981 26.3001 20.0857 27.2537 19.3744C28.2074 18.6631 29.0085 17.7674 29.6093 16.7404C30.2101 15.7135 30.5983 14.5763 30.7511 13.3964C30.9434 12.1019 30.8401 10.7807 30.4487 9.53183C30.0574 8.28299 29.3883 7.13901 28.4916 6.18576C28.336 6.04314 28.1371 5.95664 27.9267 5.94004C27.5652 5.9005 27.1952 5.94004 26.828 5.92309C26.673 5.92309 26.5243 5.86149 26.4146 5.75185C26.305 5.64221 26.2434 5.4935 26.2434 5.33844C26.2434 5.18338 26.305 5.03468 26.4146 4.92503C26.5243 4.81539 26.673 4.75379 26.828 4.75379C27.3114 4.71503 27.7974 4.7207 28.2798 4.77074C28.6248 4.82 28.9458 4.97605 29.1977 5.21699C30.4195 6.49749 31.2837 8.07634 31.7038 9.79563C32.124 11.5149 32.0853 13.3144 31.5918 15.0141C31.0982 16.7137 30.1671 18.254 28.8914 19.4809C27.6158 20.7078 26.0404 21.5782 24.3228 22.0052C22.9406 22.3553 21.4997 22.4076 20.0957 22.1587C18.6917 21.9099 17.3567 21.3655 16.179 20.5617C15.0013 19.7578 14.0078 18.7129 13.2645 17.4961C12.5212 16.2794 12.0449 14.9185 11.8672 13.5038C11.6468 11.9996 11.7794 10.4648 12.2544 9.02067C12.7294 7.57656 13.5338 6.26274 14.6041 5.1831C14.7384 5.03891 14.9024 4.9256 15.0847 4.85099C15.2671 4.77638 15.4635 4.74226 15.6604 4.75097C17.0359 4.75097 18.4113 4.75097 19.7868 4.75097" fill="#0066BA"/>
<path d="M21.9108 39.217C20.8543 39.1897 19.8519 38.7438 19.1241 37.9773C18.3963 37.2109 18.0028 36.1867 18.0301 35.1302C18.0478 34.5972 18.1757 34.0736 18.4056 33.5924C18.6355 33.1112 18.9626 32.6829 19.3662 32.3343C19.7698 31.9857 20.2412 31.7244 20.7507 31.5669C21.2602 31.4094 21.7968 31.3592 22.3267 31.4192C22.8566 31.4792 23.3683 31.6483 23.8297 31.9157C24.2911 32.1832 24.6921 32.5433 25.0075 32.9733C25.3228 33.4034 25.5458 33.8941 25.6623 34.4145C25.7787 34.9349 25.7862 35.4738 25.6842 35.9973C25.5826 36.4802 25.3199 36.7175 24.964 36.6441C24.6081 36.5706 24.4387 36.2655 24.5291 35.7826C24.6789 35.0859 24.5458 34.3583 24.1592 33.7598C23.7725 33.1612 23.1639 32.7408 22.4673 32.591C21.7706 32.4412 21.043 32.5743 20.4444 32.9609C19.8459 33.3476 19.4255 33.9562 19.2757 34.6528C19.1495 35.1253 19.1624 35.6243 19.3127 36.0897C19.463 36.5551 19.7443 36.9672 20.123 37.2767C20.4795 37.6003 20.9187 37.8188 21.3918 37.908C21.8649 37.9973 22.3535 37.9537 22.8034 37.7823C22.8909 37.754 22.9728 37.7116 23.0576 37.6806C23.1296 37.6425 23.2086 37.6196 23.2898 37.6133C23.371 37.607 23.4526 37.6175 23.5296 37.6439C23.6067 37.6704 23.6774 37.7124 23.7376 37.7673C23.7978 37.8221 23.846 37.8887 23.8795 37.963C23.915 38.038 23.9335 38.12 23.9337 38.203C23.934 38.286 23.9159 38.368 23.8809 38.4433C23.8458 38.5185 23.7946 38.5851 23.7309 38.6382C23.6672 38.6914 23.5926 38.7299 23.5123 38.751C22.9869 38.9346 22.4418 39.056 21.9052 39.2029" fill="#0066BA"/>
<path d="M16.6128 17.1811C16.6128 16.5279 16.8723 15.9015 17.3341 15.4396C17.796 14.9777 18.4225 14.7183 19.0757 14.7183C19.7289 14.7183 20.3553 14.9777 20.8172 15.4396C21.279 15.9015 21.5385 16.5279 21.5385 17.1811C21.5385 17.8343 21.279 18.4608 20.8172 18.9226C20.3553 19.3845 19.7289 19.644 19.0757 19.644C18.4225 19.644 17.796 19.3845 17.3341 18.9226C16.8723 18.4608 16.6128 17.8343 16.6128 17.1811M17.7906 17.1811C17.7879 17.3518 17.8193 17.5212 17.8829 17.6796C17.9465 17.838 18.041 17.9822 18.1609 18.1036C18.2808 18.2251 18.4237 18.3215 18.5812 18.3871C18.7388 18.4528 18.9078 18.4864 19.0785 18.486C19.41 18.4685 19.722 18.3238 19.9497 18.0822C20.1773 17.8406 20.3032 17.5205 20.301 17.1886C20.2988 16.8566 20.1688 16.5382 19.9379 16.2996C19.7071 16.061 19.3933 15.9205 19.0615 15.9073C18.8943 15.9077 18.7287 15.941 18.5743 16.0054C18.4199 16.0697 18.2797 16.1639 18.1616 16.2824C18.0436 16.401 17.9501 16.5416 17.8864 16.6963C17.8228 16.851 17.7902 17.0167 17.7906 17.184" fill="#0066BA"/>
<path d="M27.1733 17.2065C27.1711 17.6931 27.0247 18.1682 26.7527 18.5717C26.4808 18.9752 26.0953 19.2892 25.6451 19.4738C25.1949 19.6585 24.7 19.7057 24.223 19.6094C23.746 19.5131 23.3083 19.2776 22.965 18.9327C22.6216 18.5879 22.3882 18.149 22.2941 17.6716C22.1999 17.1941 22.2494 16.6995 22.4361 16.2501C22.6228 15.8008 22.9385 15.4168 23.3433 15.1466C23.7481 14.8765 24.2238 14.7324 24.7104 14.7324C25.0346 14.7331 25.3554 14.7977 25.6546 14.9224C25.9539 15.0471 26.2256 15.2296 26.4543 15.4594C26.683 15.6891 26.8642 15.9616 26.9875 16.2614C27.1109 16.5612 27.174 16.8823 27.1733 17.2065M25.9927 17.2065C26.0003 16.8689 25.8738 16.542 25.6408 16.2974C25.4079 16.0528 25.0876 15.9105 24.75 15.9017C24.5795 15.8972 24.4098 15.9265 24.2508 15.9879C24.0917 16.0493 23.9464 16.1417 23.8233 16.2596C23.7001 16.3775 23.6015 16.5186 23.5332 16.6749C23.4649 16.8311 23.4282 16.9993 23.4253 17.1698C23.4231 17.5142 23.5573 17.8454 23.7987 18.091C24.0401 18.3366 24.3689 18.4766 24.7132 18.4803C25.0509 18.4781 25.3742 18.3434 25.6135 18.1051C25.8528 17.8669 25.989 17.5442 25.9927 17.2065" fill="#0066BA"/>
<path d="M21.8741 9.67953C22.3603 9.67621 22.8365 9.81703 23.2427 10.0842C23.6489 10.3513 23.9668 10.7329 24.1564 11.1806C24.3459 11.6283 24.3985 12.1222 24.3075 12.5998C24.2166 13.0774 23.9861 13.5173 23.6453 13.864C23.3045 14.2107 22.8686 14.4487 22.3926 14.5479C21.9167 14.647 21.422 14.6029 20.9711 14.4211C20.5202 14.2393 20.1332 13.928 19.8591 13.5265C19.585 13.1249 19.436 12.6512 19.431 12.165C19.4257 11.8407 19.485 11.5186 19.6054 11.2175C19.7258 10.9163 19.9049 10.6422 20.1323 10.4109C20.3596 10.1796 20.6307 9.99581 20.9297 9.87026C21.2288 9.7447 21.5498 9.67986 21.8741 9.67953ZM20.6088 12.1537C20.6117 12.4082 20.6903 12.6561 20.8345 12.8659C20.9788 13.0756 21.1823 13.2376 21.4189 13.3313C21.6556 13.425 21.9148 13.4461 22.1635 13.392C22.4123 13.3379 22.6393 13.211 22.8156 13.0274C22.992 12.8439 23.1097 12.612 23.1538 12.3613C23.1979 12.1106 23.1664 11.8525 23.0634 11.6197C22.9603 11.387 22.7902 11.1902 22.5749 11.0544C22.3596 10.9187 22.1088 10.85 21.8543 10.8573C21.6872 10.8599 21.5222 10.8955 21.3689 10.9622C21.2156 11.0289 21.0771 11.1253 20.9613 11.2458C20.8455 11.3664 20.7547 11.5087 20.6942 11.6645C20.6337 11.8203 20.6047 11.9866 20.6088 12.1537" fill="#0066BA"/>
<path d="M27.5199 14.5968C27.0343 14.5973 26.5594 14.4541 26.155 14.1853C25.7507 13.9164 25.435 13.5339 25.2476 13.0859C25.0603 12.6379 25.0097 12.1445 25.1022 11.6678C25.1948 11.1912 25.4264 10.7525 25.7678 10.4072C26.1092 10.0619 26.5451 9.82534 27.0207 9.72733C27.4963 9.62933 27.9902 9.67428 28.4403 9.8565C28.8904 10.0387 29.2765 10.3501 29.55 10.7513C29.8235 11.1526 29.9721 11.6258 29.9771 12.1113C29.9801 12.4362 29.9188 12.7584 29.7967 13.0595C29.6746 13.3605 29.4942 13.6344 29.2658 13.8655C29.0374 14.0965 28.7655 14.28 28.4659 14.4056C28.1663 14.5311 27.8447 14.5961 27.5199 14.5968M27.486 10.8545C27.2337 10.8606 26.9888 10.941 26.782 11.0857C26.5752 11.2304 26.4156 11.4329 26.3234 11.6679C26.2312 11.9028 26.2104 12.1597 26.2636 12.4064C26.3167 12.6532 26.4415 12.8787 26.6223 13.0549C26.8031 13.231 27.0318 13.3498 27.2798 13.3965C27.5279 13.4432 27.7842 13.4157 28.0166 13.3173C28.2491 13.219 28.4473 13.0543 28.5866 12.8438C28.7258 12.6332 28.7998 12.3863 28.7993 12.1339C28.7994 11.963 28.7652 11.7938 28.6988 11.6364C28.6324 11.4789 28.5351 11.3363 28.4127 11.217C28.2903 11.0978 28.1452 11.0042 27.986 10.942C27.8269 10.8797 27.6569 10.85 27.486 10.8545Z" fill="#0066BA"/>
<path d="M16.2245 14.5996C15.7371 14.5876 15.2643 14.431 14.866 14.1498C14.4678 13.8685 14.1621 13.4752 13.9878 13.0199C13.8135 12.5646 13.7784 12.0678 13.887 11.5925C13.9956 11.1172 14.2429 10.6849 14.5977 10.3504C14.9524 10.016 15.3985 9.79445 15.8794 9.71401C16.3602 9.63358 16.8541 9.69783 17.2984 9.89862C17.7427 10.0994 18.1173 10.4277 18.3746 10.8418C18.632 11.2559 18.7605 11.7371 18.7439 12.2243C18.7188 12.8714 18.4408 13.4828 17.9697 13.927C17.4986 14.3712 16.8719 14.6127 16.2245 14.5996M16.2923 10.8602C16.0381 10.8585 15.7891 10.9324 15.577 11.0725C15.3649 11.2126 15.1992 11.4126 15.1011 11.6471C15.0029 11.8816 14.9766 12.14 15.0256 12.3894C15.0745 12.6389 15.1966 12.8681 15.3761 13.0481C15.5557 13.228 15.7847 13.3506 16.034 13.4001C16.2833 13.4496 16.5418 13.4239 16.7765 13.3263C17.0112 13.2286 17.2115 13.0634 17.3521 12.8516C17.4927 12.6398 17.5672 12.391 17.5661 12.1368C17.5624 11.7998 17.4271 11.4776 17.1891 11.2391C16.9511 11.0006 16.6292 10.8646 16.2923 10.8602" fill="#0066BA"/>
<path d="M21.8936 26.3378C22.421 26.337 22.9276 26.5441 23.3035 26.9142C23.6794 27.2842 23.8943 27.7875 23.9017 28.3149C23.9017 28.8486 23.6897 29.3605 23.3123 29.7379C22.9349 30.1152 22.423 30.3272 21.8893 30.3272C21.3556 30.3272 20.8438 30.1152 20.4664 29.7379C20.089 29.3605 19.877 28.8486 19.877 28.3149C19.8851 27.7862 20.1015 27.2821 20.479 26.912C20.8566 26.5418 21.3648 26.3355 21.8936 26.3378ZM21.8936 27.5212C21.7856 27.5178 21.6781 27.5358 21.577 27.574C21.476 27.6122 21.3835 27.6699 21.3048 27.7439C21.2261 27.8178 21.1628 27.9066 21.1184 28.0051C21.0741 28.1035 21.0495 28.2098 21.0462 28.3177C21.0442 28.4264 21.0636 28.5344 21.1033 28.6356C21.143 28.7368 21.2022 28.8291 21.2776 28.9074C21.4299 29.0655 21.6388 29.1567 21.8583 29.1608C22.0777 29.1649 22.2899 29.0817 22.448 28.9294C22.6061 28.7771 22.6972 28.5682 22.7013 28.3488C22.7029 28.1313 22.6181 27.9221 22.4656 27.767C22.3131 27.6118 22.1054 27.5235 21.8879 27.5212" fill="#0066BA"/>
<path d="M19.5418 6.45971C19.9912 6.45971 20.4223 6.63825 20.7401 6.95606C21.0579 7.27386 21.2365 7.70491 21.2365 8.15435C21.2365 8.48952 21.1371 8.81715 20.9508 9.09583C20.7646 9.37451 20.5 9.59172 20.1903 9.71998C19.8807 9.84825 19.5399 9.88181 19.2112 9.81642C18.8825 9.75104 18.5805 9.58964 18.3435 9.35264C18.1065 9.11564 17.9451 8.81368 17.8797 8.48496C17.8143 8.15623 17.8479 7.8155 17.9762 7.50584C18.1044 7.19619 18.3216 6.93152 18.6003 6.74531C18.879 6.5591 19.2066 6.45971 19.5418 6.45971M20.0445 8.15435C20.0469 8.08584 20.0352 8.01757 20.01 7.95379C19.9849 7.89001 19.9469 7.83209 19.8984 7.78361C19.8499 7.73514 19.792 7.69715 19.7282 7.67201C19.6645 7.64687 19.5962 7.63512 19.5277 7.63748C19.4621 7.63444 19.3966 7.64465 19.3351 7.66749C19.2735 7.69032 19.2172 7.72532 19.1695 7.7704C19.1218 7.81548 19.0837 7.86971 19.0574 7.92985C19.0311 7.98999 19.0172 8.05482 19.0165 8.12046C19.0095 8.19087 19.017 8.26196 19.0386 8.32935C19.0602 8.39673 19.0954 8.45896 19.142 8.51218C19.1886 8.56541 19.2457 8.60849 19.3097 8.63876C19.3736 8.66903 19.4431 8.68586 19.5138 8.68818C19.5845 8.69051 19.655 8.67829 19.7208 8.65228C19.7866 8.62627 19.8464 8.58703 19.8964 8.53699C19.9464 8.48694 19.9856 8.42715 20.0116 8.36133C20.0375 8.29552 20.0497 8.22507 20.0474 8.15435" fill="#0066BA"/>
<path d="M24.2557 6.45691C24.7051 6.45691 25.1361 6.63545 25.454 6.95326C25.7718 7.27106 25.9503 7.70211 25.9503 8.15155C25.9503 8.37409 25.9065 8.59445 25.8213 8.80005C25.7361 9.00565 25.6113 9.19248 25.454 9.34984C25.2966 9.5072 25.1098 9.63202 24.9042 9.71718C24.6986 9.80235 24.4782 9.84618 24.2557 9.84618C24.0331 9.84618 23.8128 9.80235 23.6072 9.71718C23.4016 9.63202 23.2147 9.5072 23.0574 9.34984C22.9 9.19248 22.7752 9.00565 22.69 8.80005C22.6049 8.59445 22.561 8.37409 22.561 8.15155C22.561 7.70211 22.7396 7.27106 23.0574 6.95326C23.3752 6.63545 23.8062 6.45691 24.2557 6.45691M24.2557 7.64034C24.126 7.64758 24.0038 7.70364 23.9138 7.79728C23.8238 7.89093 23.7725 8.01519 23.7704 8.14508C23.7682 8.27496 23.8153 8.40085 23.9022 8.49741C23.9891 8.59398 24.1094 8.65407 24.2388 8.66559C24.3774 8.66865 24.5117 8.61705 24.6126 8.52193C24.7136 8.4268 24.773 8.2958 24.7782 8.1572C24.7782 8.08884 24.7647 8.02117 24.7383 7.95809C24.712 7.89501 24.6734 7.83778 24.6248 7.78971C24.5762 7.74164 24.5186 7.70369 24.4552 7.67805C24.3919 7.65241 24.324 7.63959 24.2557 7.64034Z" fill="#0066BA"/>
<path d="M17.7907 17.184C17.7903 17.0167 17.8229 16.851 17.8865 16.6963C17.9502 16.5416 18.0437 16.401 18.1618 16.2824C18.2798 16.1639 18.42 16.0697 18.5744 16.0054C18.7288 15.941 18.8944 15.9077 19.0616 15.9073C19.2321 15.9066 19.401 15.9396 19.5586 16.0045C19.7163 16.0694 19.8595 16.1648 19.98 16.2854C20.1006 16.4059 20.196 16.5491 20.2609 16.7068C20.3258 16.8644 20.3588 17.0333 20.358 17.2038C20.3523 17.5415 20.2157 17.8639 19.9771 18.1031C19.7384 18.3422 19.4164 18.4795 19.0786 18.486C18.9079 18.4864 18.7389 18.4528 18.5813 18.3871C18.4238 18.3215 18.2809 18.2251 18.161 18.1037C18.0411 17.9822 17.9466 17.8381 17.883 17.6797C17.8195 17.5213 17.7881 17.3518 17.7907 17.1811M19.0843 16.6163C19.008 16.6128 18.9318 16.6249 18.8603 16.6517C18.7888 16.6786 18.7235 16.7196 18.6683 16.7724C18.6131 16.8252 18.5692 16.8887 18.5392 16.9589C18.5093 17.0292 18.4939 17.1048 18.494 17.1811C18.489 17.2594 18.4998 17.338 18.5257 17.412C18.5515 17.4861 18.592 17.5543 18.6447 17.6124C18.6973 17.6706 18.7611 17.7177 18.8322 17.7508C18.9034 17.7839 18.9804 17.8025 19.0588 17.8053C19.2177 17.8039 19.3695 17.7399 19.4816 17.6273C19.5936 17.5147 19.6569 17.3626 19.6576 17.2038C19.6576 17.0539 19.5981 16.9102 19.4921 16.8043C19.3862 16.6984 19.2425 16.6388 19.0927 16.6388" fill="#E2EEF7"/>
<path d="M25.9912 17.2263C25.9875 17.564 25.8514 17.8867 25.6121 18.1249C25.3727 18.3632 25.0494 18.4979 24.7118 18.5001C24.3674 18.4964 24.0386 18.3564 23.7972 18.1108C23.5558 17.8652 23.4216 17.5339 23.4239 17.1896C23.4268 17.0191 23.4635 16.8509 23.5318 16.6947C23.6001 16.5384 23.6986 16.3973 23.8218 16.2794C23.945 16.1615 24.0903 16.0691 24.2493 16.0077C24.4084 15.9463 24.578 15.917 24.7485 15.9215C25.0861 15.9303 25.4065 16.0726 25.6394 16.3172C25.8723 16.5617 25.9988 16.8887 25.9912 17.2263M24.692 17.7912C24.8452 17.7928 24.9931 17.7348 25.1043 17.6293C25.2155 17.5239 25.2814 17.3794 25.288 17.2263C25.2959 17.1475 25.2871 17.068 25.2623 16.9928C25.2375 16.9176 25.1972 16.8484 25.1439 16.7898C25.0906 16.7312 25.0256 16.6845 24.9531 16.6526C24.8807 16.6208 24.8022 16.6045 24.7231 16.6049C24.6473 16.5996 24.5711 16.6096 24.4993 16.6343C24.4274 16.6591 24.3614 16.698 24.3049 16.7489C24.2485 16.7998 24.2029 16.8616 24.1709 16.9305C24.1389 16.9995 24.1211 17.0741 24.1187 17.1501C24.1109 17.3086 24.1658 17.4637 24.2715 17.5821C24.3772 17.7005 24.5252 17.7725 24.6835 17.7827" fill="#E2EEF7"/>
<path d="M20.6099 12.1537C20.6071 11.8993 20.6801 11.6497 20.8195 11.4369C20.959 11.2241 21.1586 11.0575 21.3929 10.9585C21.6273 10.8594 21.8859 10.8323 22.1357 10.8807C22.3855 10.929 22.6153 11.0505 22.7958 11.2299C22.9763 11.4092 23.0994 11.6382 23.1494 11.8877C23.1994 12.1371 23.1741 12.3959 23.0766 12.6309C22.9791 12.8659 22.8138 13.0666 22.6019 13.2075C22.39 13.3483 22.141 13.423 21.8866 13.4219C21.7193 13.423 21.5535 13.391 21.3987 13.3278C21.2438 13.2645 21.103 13.1713 20.9844 13.0534C20.8657 12.9355 20.7715 12.7954 20.7073 12.641C20.643 12.4865 20.6099 12.3209 20.6099 12.1537M21.8724 12.7186C21.9476 12.7228 22.0228 12.7119 22.0936 12.6866C22.1645 12.6613 22.2296 12.6222 22.2851 12.5714C22.3406 12.5206 22.3854 12.4592 22.4169 12.3909C22.4484 12.3226 22.4659 12.2487 22.4684 12.1735C22.4708 12.0974 22.4582 12.0217 22.4313 11.9505C22.4045 11.8793 22.3639 11.8141 22.3118 11.7587C22.2597 11.7032 22.1972 11.6585 22.1279 11.6272C22.0586 11.5959 21.9838 11.5785 21.9078 11.5761C21.8317 11.5737 21.7559 11.5863 21.6848 11.6131C21.6136 11.64 21.5484 11.6807 21.493 11.7327C21.4375 11.7848 21.3928 11.8472 21.3615 11.9166C21.3302 11.9859 21.3128 12.0607 21.3104 12.1368C21.3081 12.2123 21.3211 12.2876 21.3484 12.3581C21.3758 12.4286 21.417 12.4929 21.4697 12.5472C21.5224 12.6014 21.5854 12.6446 21.6551 12.674C21.7248 12.7035 21.7996 12.7186 21.8753 12.7186" fill="#E2EEF7"/>
<path d="M27.4835 10.8573C27.7378 10.8545 27.9872 10.9274 28.2 11.0667C28.4128 11.206 28.5793 11.4054 28.6784 11.6397C28.7776 11.8739 28.8049 12.1323 28.7568 12.382C28.7087 12.6317 28.5874 12.8615 28.4083 13.0422C28.2293 13.2228 28.0006 13.3461 27.7513 13.3964C27.502 13.4467 27.2434 13.4218 27.0083 13.3247C26.7732 13.2277 26.5723 13.0629 26.4311 12.8513C26.2899 12.6398 26.2148 12.3911 26.2153 12.1367C26.2175 11.8 26.3515 11.4776 26.5885 11.2384C26.8255 10.9993 27.1468 10.8625 27.4835 10.8573ZM27.5061 11.5578C27.43 11.5547 27.3541 11.5671 27.283 11.5941C27.2118 11.6211 27.1468 11.6622 27.092 11.715C27.0371 11.7678 26.9935 11.8311 26.9637 11.9011C26.9339 11.9712 26.9185 12.0465 26.9186 12.1226C26.9152 12.2 26.9271 12.2773 26.9537 12.3501C26.9803 12.4229 27.021 12.4896 27.0735 12.5466C27.126 12.6036 27.1893 12.6496 27.2597 12.682C27.33 12.7144 27.4061 12.7326 27.4835 12.7355C27.6421 12.7333 27.7933 12.6685 27.9044 12.5553C28.0155 12.4421 28.0774 12.2897 28.0766 12.1311C28.0701 11.98 28.0058 11.8371 27.897 11.732C27.7882 11.6269 27.6432 11.5675 27.4919 11.5662" fill="#E2EEF7"/>
<path d="M16.2931 10.8573C16.5454 10.8623 16.7907 10.9417 16.9981 11.0854C17.2055 11.2292 17.3659 11.431 17.4592 11.6656C17.5524 11.9001 17.5744 12.157 17.5223 12.4039C17.4702 12.6509 17.3464 12.877 17.1664 13.0539C16.9864 13.2308 16.7582 13.3507 16.5103 13.3984C16.2625 13.4462 16.0061 13.4198 15.7732 13.3224C15.5403 13.2251 15.3413 13.0612 15.2012 12.8513C15.061 12.6414 14.986 12.3948 14.9854 12.1424C14.9846 11.9715 15.018 11.8022 15.0837 11.6444C15.1495 11.4867 15.2461 11.3437 15.368 11.2239C15.4899 11.1041 15.6346 11.0099 15.7934 10.947C15.9523 10.884 16.1222 10.8535 16.2931 10.8573M16.8579 12.1678C16.8637 12.0923 16.8542 12.0163 16.83 11.9445C16.8057 11.8727 16.7673 11.8064 16.717 11.7498C16.6666 11.6931 16.6054 11.6472 16.537 11.6147C16.4685 11.5822 16.3942 11.5638 16.3185 11.5606C16.2395 11.5544 16.1601 11.5643 16.085 11.5897C16.0099 11.615 15.9408 11.6553 15.8816 11.7081C15.8225 11.7608 15.7747 11.825 15.7411 11.8967C15.7074 11.9685 15.6886 12.0463 15.6858 12.1255C15.6827 12.2839 15.742 12.4371 15.8508 12.5523C15.9596 12.6674 16.1093 12.7353 16.2676 12.7412C16.4197 12.7406 16.5657 12.6817 16.6756 12.5766C16.7854 12.4715 16.8507 12.3282 16.8579 12.1763" fill="#E2EEF7"/>
<path d="M21.9077 27.5213C22.1252 27.5235 22.333 27.6119 22.4854 27.767C22.6379 27.9221 22.7227 28.1313 22.7212 28.3488C22.7191 28.4575 22.6957 28.5647 22.6522 28.6643C22.6087 28.7639 22.5461 28.854 22.4678 28.9294C22.3895 29.0048 22.2971 29.064 22.196 29.1038C22.0948 29.1435 21.9867 29.1629 21.8781 29.1608C21.7694 29.1588 21.6622 29.1354 21.5626 29.0919C21.463 29.0484 21.3729 28.9857 21.2975 28.9074C21.2221 28.8292 21.1628 28.7368 21.1231 28.6356C21.0834 28.5344 21.064 28.4264 21.0661 28.3178C21.0694 28.2098 21.0939 28.1035 21.1383 28.0051C21.1826 27.9066 21.246 27.8179 21.3247 27.7439C21.4034 27.6699 21.4958 27.6122 21.5969 27.574C21.6979 27.5358 21.8054 27.5179 21.9134 27.5213" fill="#E2EEF7"/>
<path d="M20.041 8.1572C20.0455 8.22921 20.0349 8.30136 20.0099 8.36903C19.9848 8.43669 19.9459 8.49836 19.8955 8.55007C19.8452 8.60177 19.7846 8.64236 19.7176 8.66923C19.6507 8.6961 19.5788 8.70865 19.5067 8.70608C19.4346 8.7035 19.3638 8.68586 19.2989 8.65429C19.2341 8.62271 19.1765 8.57789 19.13 8.52273C19.0835 8.46757 19.0491 8.40328 19.0289 8.334C19.0087 8.26472 19.0033 8.19198 19.0129 8.12048C19.0136 8.05484 19.0275 7.99001 19.0538 7.92987C19.0801 7.86973 19.1183 7.8155 19.166 7.77042C19.2137 7.72535 19.27 7.69034 19.3315 7.66751C19.3931 7.64467 19.4586 7.63446 19.5241 7.6375C19.5927 7.63514 19.6609 7.6469 19.7247 7.67203C19.7885 7.69717 19.8464 7.73516 19.8949 7.78363C19.9434 7.83211 19.9814 7.89003 20.0065 7.95381C20.0316 8.01759 20.0434 8.08586 20.041 8.15437" fill="#E2EEF7"/>
<path d="M24.2554 7.64034C24.3238 7.63959 24.3916 7.6524 24.4549 7.67805C24.5183 7.70369 24.576 7.74164 24.6246 7.78971C24.6732 7.83778 24.7117 7.89501 24.738 7.95809C24.7644 8.02117 24.778 8.08885 24.778 8.15721C24.7728 8.29581 24.7133 8.42681 24.6124 8.52193C24.5114 8.61706 24.3771 8.66865 24.2385 8.66559C24.1091 8.65407 23.9889 8.59399 23.902 8.49742C23.8151 8.40086 23.7679 8.27497 23.7701 8.14509C23.7722 8.0152 23.8235 7.89094 23.9135 7.79729C24.0036 7.70365 24.1257 7.64757 24.2554 7.64034Z" fill="#E2EEF7"/>
<path d="M19.0872 16.6106C19.2371 16.6106 19.3808 16.6701 19.4867 16.7761C19.5926 16.882 19.6521 17.0257 19.6521 17.1755C19.6514 17.3343 19.5882 17.4865 19.4761 17.5991C19.3641 17.7117 19.2122 17.7756 19.0533 17.7771C18.9749 17.7742 18.8979 17.7557 18.8267 17.7226C18.7556 17.6894 18.6918 17.6424 18.6392 17.5842C18.5865 17.526 18.5461 17.4579 18.5202 17.3838C18.4943 17.3097 18.4835 17.2312 18.4885 17.1529C18.4884 17.0765 18.5038 17.0009 18.5338 16.9307C18.5637 16.8605 18.6076 16.797 18.6628 16.7442C18.718 16.6914 18.7833 16.6504 18.8548 16.6235C18.9263 16.5967 19.0025 16.5846 19.0788 16.588" fill="#0066BA"/>
<path d="M24.6931 17.7855C24.5347 17.7753 24.3867 17.7033 24.281 17.5849C24.1753 17.4665 24.1204 17.3114 24.1282 17.1529C24.1306 17.0769 24.1484 17.0023 24.1804 16.9333C24.2124 16.8644 24.258 16.8026 24.3144 16.7517C24.3709 16.7008 24.437 16.6619 24.5088 16.6371C24.5807 16.6124 24.6568 16.6024 24.7326 16.6077C24.8118 16.6073 24.8902 16.6236 24.9626 16.6554C25.0351 16.6873 25.1001 16.734 25.1534 16.7926C25.2067 16.8512 25.247 16.9204 25.2718 16.9956C25.2966 17.0708 25.3054 17.1503 25.2975 17.2291C25.2909 17.3822 25.225 17.5267 25.1138 17.6321C25.0026 17.7376 24.8547 17.7956 24.7015 17.794" fill="#0066BA"/>
<path d="M21.8737 12.7299C21.7981 12.7299 21.7232 12.7148 21.6536 12.6853C21.5839 12.6559 21.5209 12.6127 21.4682 12.5585C21.4155 12.5042 21.3743 12.4399 21.3469 12.3694C21.3195 12.2989 21.3066 12.2236 21.3088 12.148C21.3113 12.072 21.3286 11.9972 21.3599 11.9279C21.3913 11.8585 21.436 11.7961 21.4914 11.744C21.5469 11.692 21.6121 11.6513 21.6832 11.6245C21.7544 11.5976 21.8302 11.585 21.9062 11.5874C21.9822 11.5898 22.0571 11.6072 22.1264 11.6385C22.1957 11.6698 22.2582 11.7145 22.3102 11.77C22.3623 11.8255 22.4029 11.8906 22.4298 11.9618C22.4567 12.033 22.4693 12.1087 22.4669 12.1848C22.4643 12.26 22.4468 12.3339 22.4153 12.4022C22.3839 12.4705 22.3391 12.5319 22.2835 12.5827C22.228 12.6335 22.1629 12.6726 22.0921 12.6979C22.0212 12.7232 21.946 12.7341 21.8709 12.7299" fill="#0066BA"/>
<path d="M27.509 11.5606C27.6603 11.5619 27.8052 11.6212 27.914 11.7263C28.0228 11.8314 28.0871 11.9743 28.0936 12.1255C28.0944 12.284 28.0325 12.4365 27.9214 12.5497C27.8103 12.6629 27.6591 12.7276 27.5005 12.7299C27.4231 12.727 27.347 12.7088 27.2767 12.6764C27.2063 12.6439 27.1431 12.5979 27.0906 12.541C27.0381 12.484 26.9973 12.4172 26.9708 12.3445C26.9442 12.2717 26.9322 12.1944 26.9356 12.117C26.9356 12.0409 26.9509 11.9655 26.9807 11.8955C27.0105 11.8254 27.0541 11.7621 27.109 11.7094C27.1638 11.6566 27.2288 11.6155 27.3 11.5884C27.3711 11.5614 27.447 11.5491 27.5231 11.5521" fill="#0066BA"/>
<path d="M16.8636 12.1678C16.8564 12.3197 16.7911 12.463 16.6813 12.5681C16.5714 12.6733 16.4254 12.7322 16.2733 12.7327C16.115 12.7268 15.9653 12.659 15.8565 12.5438C15.7477 12.4287 15.6884 12.2754 15.6915 12.117C15.6943 12.0378 15.7131 11.96 15.7468 11.8883C15.7804 11.8166 15.8282 11.7524 15.8874 11.6996C15.9465 11.6469 16.0156 11.6066 16.0907 11.5812C16.1658 11.5559 16.2452 11.546 16.3242 11.5521C16.3999 11.5553 16.4742 11.5737 16.5427 11.6062C16.6111 11.6387 16.6724 11.6847 16.7227 11.7413C16.773 11.798 16.8115 11.8642 16.8357 11.936C16.8599 12.0078 16.8694 12.0838 16.8636 12.1594" fill="#0066BA"/>
<path d="M17.9873 35.3193C18.0147 34.2628 18.4606 33.2604 19.2271 32.5326C19.9935 31.8048 21.0177 31.4113 22.0742 31.4387C22.6072 31.4563 23.1308 31.5842 23.612 31.8141C24.0931 32.0441 24.5215 32.3711 24.8701 32.7747C25.2187 33.1783 25.4799 33.6498 25.6374 34.1593C25.7949 34.6688 25.8452 35.2053 25.7852 35.7352C25.7252 36.2651 25.5561 36.7769 25.2886 37.2383C25.0211 37.6996 24.6611 38.1006 24.231 38.4159C23.801 38.7313 23.3103 38.9543 22.7899 39.0708C22.2695 39.1872 21.7306 39.1947 21.2071 39.0927C20.7241 38.9911 20.4869 38.7285 20.5603 38.3726C20.6338 38.0167 20.9388 37.8472 21.4218 37.9376C22.1184 38.0874 22.846 37.9544 23.4446 37.5677C24.0431 37.181 24.4635 36.5725 24.6133 35.8758C24.7631 35.1792 24.6301 34.4516 24.2434 33.853C23.8568 33.2545 23.2482 32.834 22.5515 32.6842C22.079 32.5581 21.5801 32.5709 21.1147 32.7212C20.6493 32.8715 20.2372 33.1528 19.9277 33.5315C19.6041 33.888 19.3856 34.3272 19.2964 34.8003C19.2071 35.2734 19.2507 35.762 19.4221 36.2119C19.4503 36.2994 19.4927 36.3813 19.5238 36.4661C19.5618 36.5381 19.5847 36.6172 19.591 36.6984C19.5973 36.7796 19.5869 36.8611 19.5605 36.9381C19.534 37.0152 19.492 37.086 19.4371 37.1461C19.3823 37.2063 19.3156 37.2546 19.2413 37.288C19.1663 37.3235 19.0844 37.3421 19.0014 37.3423C18.9184 37.3426 18.8364 37.3244 18.7611 37.2894C18.6859 37.2543 18.6193 37.2031 18.5661 37.1394C18.5129 37.0757 18.4744 37.0011 18.4533 36.9208C18.2697 36.3955 18.1483 35.8504 18.0014 35.3137" fill="#0066BA"/>
<path d="M28.7526 2.00001C29.6615 2.14995 30.5003 2.5817 31.1505 3.23427C32.7166 4.81554 33.8373 6.78238 34.3992 8.93582C34.9611 11.0893 34.9443 13.3529 34.3505 15.4978C33.7676 17.6827 32.6303 19.68 31.0488 21.2963C29.7238 22.7302 28.8856 24.5461 28.6537 26.4847C28.4593 28.2375 28.6899 30.0113 29.3259 31.6561C29.6955 32.6529 29.8588 33.7143 29.8059 34.7761C29.7529 35.8378 29.4849 36.8778 29.0179 37.8328C28.551 38.7878 27.8949 39.6381 27.0894 40.3319C26.284 41.0257 25.346 41.5487 24.3324 41.8691C23.8014 42.0414 23.245 42.1262 22.6999 42.2533H21.1267C21.0162 42.2209 20.904 42.1945 20.7906 42.1742C19.0349 41.9142 17.4165 41.0747 16.1929 39.7891C14.9692 38.5035 14.2105 36.8457 14.0375 35.0793C13.9661 33.6903 14.1944 32.3023 14.7069 31.0093C15.3178 29.2855 15.4159 27.4215 14.9893 25.643C14.5201 23.7959 13.5789 22.1024 12.2581 20.7286C10.4532 18.7143 9.33667 16.1774 9.07056 13.4859C8.80446 10.7944 9.40256 8.08801 10.7781 5.75927C11.1579 4.84463 11.7432 4.02975 12.4887 3.37782C13.2341 2.72588 14.1198 2.25443 15.0769 2.00001H28.7526ZM27.2387 23.9201C26.7953 24.1263 26.462 24.0387 26.3067 23.6857C26.1513 23.3326 26.3067 23.0615 26.7388 22.8553C28.3043 22.1662 29.6944 21.1331 30.8058 19.833C31.9172 18.5328 32.7214 16.9989 33.1586 15.3453C33.7454 13.3883 33.7927 11.3092 33.2955 9.32762C32.7984 7.34601 31.7753 5.53547 30.3342 4.08723C30.0685 3.79319 29.7425 3.55997 29.3783 3.40351C29.0142 3.24704 28.6206 3.171 28.2244 3.1806C24.0198 3.1806 19.8162 3.1806 15.6135 3.1806C15.2127 3.17137 14.8147 3.24887 14.4466 3.40779C14.0785 3.56671 13.7492 3.8033 13.4811 4.10136C11.9864 5.59403 10.9415 7.47683 10.4655 9.53489C9.9896 11.5929 10.1018 13.7433 10.7894 15.7407C11.3871 17.7734 12.5444 19.597 14.1291 21.0034C15.7137 22.4098 17.6619 23.3422 19.7512 23.6942C21.1407 23.9788 22.5725 23.9874 23.9652 23.7196C24.4313 23.6349 24.7448 23.8213 24.8125 24.2026C24.8803 24.5839 24.6261 24.8013 24.1658 24.8804C21.3592 25.3889 18.4633 24.9414 15.9411 23.6094C15.8479 23.5614 15.7575 23.5106 15.6587 23.4654C15.6525 23.4626 15.6457 23.4611 15.6389 23.4611C15.6321 23.4611 15.6254 23.4626 15.6191 23.4654C15.8338 24.2647 16.0993 25.0584 16.2575 25.869C16.6277 27.7964 16.4526 29.7889 15.7519 31.6222C15.3247 32.71 15.1471 33.8798 15.2322 35.0454C15.3979 36.5149 16.0396 37.8898 17.0595 38.9607C18.0793 40.0315 19.4214 40.7395 20.881 40.9766C21.7529 41.1179 22.6442 41.0854 23.5035 40.881C24.3628 40.6766 25.1732 40.3044 25.8882 39.7858C26.6032 39.2671 27.2086 38.6123 27.6696 37.8589C28.1307 37.1054 28.4382 36.2683 28.5746 35.3956C28.7728 34.2659 28.6575 33.1034 28.2414 32.0346C27.6131 30.4617 27.329 28.7725 27.4082 27.0806C27.48 25.9564 27.7229 24.8497 28.1284 23.7987C28.1679 23.6942 28.2075 23.5868 28.2696 23.4146C27.8855 23.6038 27.5663 23.7676 27.2387 23.9173" fill="#0066BA"/>
<path d="M24.0183 4.75944C22.6062 4.75944 21.2166 4.75944 19.8157 4.75944C19.7337 4.75139 19.6509 4.7606 19.5727 4.78646C19.4945 4.81232 19.4225 4.85426 19.3615 4.90959C19.3005 4.96493 19.2517 5.03242 19.2183 5.10774C19.1849 5.18306 19.1677 5.26453 19.1677 5.34691C19.1677 5.4293 19.1849 5.51077 19.2183 5.58609C19.2517 5.6614 19.3005 5.7289 19.3615 5.78423C19.4225 5.83957 19.4945 5.88152 19.5727 5.90738C19.6509 5.93324 19.7337 5.94244 19.8157 5.93439C19.9202 5.93439 20.0247 5.93439 20.1292 5.93439C22.6965 5.93439 25.2639 5.93439 27.8313 5.93439C27.9782 5.92307 28.1256 5.94807 28.2606 6.00718C28.3955 6.06628 28.5139 6.15768 28.6052 6.27332C29.6965 7.45742 30.4338 8.92387 30.7334 10.5061C31.0329 12.0882 30.8827 13.7227 30.2998 15.2238C29.7984 16.7564 28.872 18.115 27.6284 19.1415C26.3849 20.1681 24.8753 20.8203 23.2755 21.0223C22.101 21.2123 20.9004 21.1643 19.7448 20.8812C18.5892 20.5981 17.5023 20.0857 16.5486 19.3744C15.5949 18.6631 14.7939 17.7674 14.1931 16.7404C13.5923 15.7135 13.204 14.5763 13.0512 13.3964C12.8589 12.1019 12.9623 10.7807 13.3536 9.53183C13.7449 8.28299 14.4141 7.13901 15.3107 6.18576C15.4664 6.04314 15.6652 5.95664 15.8756 5.94004C16.2371 5.9005 16.6071 5.94004 16.9743 5.92309C17.1294 5.92309 17.2781 5.86149 17.3877 5.75185C17.4974 5.64221 17.559 5.4935 17.559 5.33844C17.559 5.18338 17.4974 5.03468 17.3877 4.92503C17.2781 4.81539 17.1294 4.75379 16.9743 4.75379C16.4909 4.71503 16.005 4.7207 15.5226 4.77074C15.1775 4.82 14.8565 4.97605 14.6046 5.21699C13.3828 6.49749 12.5187 8.07634 12.0985 9.79563C11.6784 11.5149 11.717 13.3144 12.2106 15.0141C12.7041 16.7137 13.6353 18.254 14.9109 19.4809C16.1865 20.7078 17.7619 21.5782 19.4796 22.0052C20.8618 22.3553 22.3026 22.4076 23.7066 22.1587C25.1106 21.9099 26.4457 21.3655 27.6234 20.5617C28.8011 19.7578 29.7945 18.7129 30.5378 17.4961C31.2812 16.2794 31.7575 14.9185 31.9351 13.5038C32.1555 11.9996 32.023 10.4648 31.548 9.02067C31.073 7.57656 30.2685 6.26274 29.1983 5.1831C29.064 5.03891 28.9 4.9256 28.7176 4.85099C28.5352 4.77638 28.3388 4.74226 28.142 4.75097C26.7665 4.75097 25.391 4.75097 24.0155 4.75097" fill="#0066BA"/>
</svg>
