<svg width="145" height="89" viewBox="0 0 145 89" fill="none" xmlns="http://www.w3.org/2000/svg">
<g filter="url(#filter0_d_3075_6101)">
<path fill-rule="evenodd" clip-rule="evenodd" d="M20.5267 13C16.3698 13 13 16.3698 13 20.5267V67.5685C13 71.7254 16.3698 75.0952 20.5267 75.0952H116.492C120.649 75.0952 124.019 71.7254 124.019 67.5685V58.1603H129.664C130.703 58.1603 131.546 57.3178 131.546 56.2786V31.8169C131.546 30.7776 130.703 29.9352 129.664 29.9352H124.019V20.5267C124.019 16.3698 120.649 13 116.492 13H20.5267Z" fill="#079117"/>
<path fill-rule="evenodd" clip-rule="evenodd" d="M51.0698 48.4141L76.1994 21L69.9694 40.4184L84.1951 40.4184L61.35 67.8325L67.0137 48.4141H51.0698Z" fill="white"/>
</g>
<defs>
<filter id="filter0_d_3075_6101" x="0" y="0" width="144.545" height="88.0952" filterUnits="userSpaceOnUse" color-interpolation-filters="sRGB">
<feFlood flood-opacity="0" result="BackgroundImageFix"/>
<feColorMatrix in="SourceAlpha" type="matrix" values="0 0 0 0 0 0 0 0 0 0 0 0 0 0 0 0 0 0 127 0" result="hardAlpha"/>
<feOffset/>
<feGaussianBlur stdDeviation="6.5"/>
<feComposite in2="hardAlpha" operator="out"/>
<feColorMatrix type="matrix" values="0 0 0 0 0.0588235 0 0 0 0 0.654902 0 0 0 0 0.129412 0 0 0 0.8 0"/>
<feBlend mode="normal" in2="BackgroundImageFix" result="effect1_dropShadow_3075_6101"/>
<feBlend mode="normal" in="SourceGraphic" in2="effect1_dropShadow_3075_6101" result="shape"/>
</filter>
</defs>
</svg>
