<svg width="44" height="44" viewBox="0 0 44 44" fill="none" xmlns="http://www.w3.org/2000/svg">
<path d="M10.3621 33.9875H33.6408C34.2284 34.0316 34.819 33.9589 35.3781 33.7735C35.9372 33.588 36.4536 33.2937 36.8973 32.9075C37.2855 32.4745 37.5821 31.9682 37.7695 31.4187C37.9569 30.8691 38.0312 30.2876 37.9881 29.7089V16.771C38.0312 16.1924 37.9568 15.6111 37.7694 15.0618C37.582 14.5125 37.2854 14.0063 36.8973 13.5736C36.4535 13.1877 35.937 12.8937 35.3779 12.7084C34.8188 12.5232 34.2283 12.4506 33.6408 12.4948H10.3621C9.77587 12.4515 9.18679 12.5239 8.62877 12.708C8.07074 12.8921 7.55476 13.1842 7.11049 13.5675C6.71923 13.9999 6.42017 14.5069 6.23142 15.0578C6.04267 15.6086 5.96816 16.1919 6.01238 16.7722V29.7101C5.96935 30.2894 6.04445 30.8714 6.23316 31.4211C6.42187 31.9708 6.7203 32.4768 7.11049 32.9087C7.55373 33.2939 8.06942 33.5877 8.62761 33.7729C9.1858 33.9581 9.77538 34.031 10.3621 33.9875ZM10.4585 31.5578C10.1896 31.5752 9.91982 31.539 9.66507 31.4514C9.41033 31.3638 9.17568 31.2265 8.97484 31.0476C8.78965 30.8435 8.64799 30.6041 8.55844 30.344C8.46888 30.0838 8.4333 29.8082 8.45384 29.5339V16.9459C8.43329 16.6708 8.46873 16.3944 8.55805 16.1333C8.64736 15.8721 8.78871 15.6316 8.97362 15.4262C9.17459 15.2475 9.40929 15.1105 9.66403 15.0231C9.91876 14.9357 10.1884 14.8997 10.4573 14.9172H33.542C33.8121 14.9 34.083 14.9361 34.3391 15.0234C34.5952 15.1108 34.8314 15.2477 35.0342 15.4262C35.2219 15.6313 35.3656 15.8724 35.4562 16.1348C35.5469 16.3972 35.5826 16.6753 35.5613 16.952V29.5351C35.5817 29.8097 35.5455 30.0855 35.4548 30.3456C35.3642 30.6057 35.221 30.8446 35.0342 31.0476C34.8315 31.2264 34.5953 31.3635 34.3392 31.4511C34.0831 31.5387 33.8122 31.5749 33.542 31.5578H10.4585ZM12.0178 13.4825H19.3581V10.7479C19.3717 10.5154 19.3385 10.2826 19.2603 10.0631C19.1822 9.84359 19.0606 9.6419 18.903 9.46991C18.7331 9.3104 18.5322 9.18725 18.3127 9.10806C18.0932 9.02887 17.8597 8.99532 17.6267 9.00949H13.7528C13.5198 8.99532 13.2863 9.02887 13.0668 9.10806C12.8473 9.18725 12.6464 9.3104 12.4766 9.46991C12.3189 9.6419 12.1974 9.84359 12.1192 10.0631C12.0411 10.2826 12.0078 10.5154 12.0215 10.7479L12.0178 13.4825ZM24.6156 13.4825H31.957V10.7479C31.9707 10.5159 31.9381 10.2835 31.8611 10.0641C31.784 9.84477 31.664 9.6428 31.508 9.46991C31.3378 9.30839 31.136 9.18358 30.9151 9.10331C30.6943 9.02304 30.4591 8.98903 30.2245 9.00342H26.3567C26.1217 8.98865 25.8862 9.02187 25.6647 9.10105C25.4431 9.18023 25.2401 9.30368 25.0682 9.46383C24.9103 9.63569 24.7885 9.83733 24.7101 10.0568C24.6317 10.2763 24.5983 10.5093 24.6119 10.7418L24.6156 13.4825ZM17.7621 24.0879C17.7606 24.1479 17.7723 24.2076 17.7966 24.2626C17.8208 24.3176 17.857 24.3667 17.9025 24.4062C17.9943 24.4868 18.1131 24.5302 18.2355 24.5276H21.5409L19.7692 29.2047C19.7293 29.2898 19.7105 29.3833 19.7145 29.4772C19.7186 29.5711 19.7453 29.6627 19.7924 29.7441C19.8352 29.8094 19.8942 29.8627 19.9636 29.8989C20.033 29.9351 20.1106 29.9529 20.189 29.9506C20.2819 29.9469 20.3726 29.9214 20.4536 29.8759C20.5347 29.8305 20.6037 29.7666 20.655 29.6894L26.0126 23.0152C26.1238 22.9082 26.1901 22.7632 26.1981 22.6094C26.1978 22.5501 26.1846 22.4916 26.1593 22.4379C26.134 22.3841 26.0973 22.3366 26.0516 22.2984C25.96 22.2124 25.8384 22.1649 25.7124 22.166H22.4181L24.1763 17.489C24.2166 17.4064 24.2358 17.3151 24.2322 17.2234C24.2286 17.1316 24.2023 17.0421 24.1556 16.9629C24.1135 16.8977 24.0558 16.8441 23.9876 16.8067C23.9194 16.7694 23.8429 16.7496 23.7651 16.7491C23.672 16.7517 23.5808 16.7762 23.499 16.8205C23.4171 16.8649 23.347 16.9278 23.2942 17.0042L17.9256 23.6858C17.8281 23.7982 17.7706 23.9395 17.7621 24.0879Z" fill="black"/>
</svg>
